{
  "kind": "collectionType",
  "collectionName": "menus",
  "info": {
    "singularName": "menu",
    "pluralName": "menus",
    "displayName": "Menu",
    "description": ""
  },
  "options": {
    "draftAndPublish": true
  },
  "pluginOptions": {},
  "attributes": {
    "name": {
      "type": "string"
    },
    "tenants": {
      "type": "relation",
      "relation": "manyToMany",
      "target": "api::tenant.tenant",
      "inversedBy": "menus"
    },
    "page": {
      "type": "relation",
      "relation": "oneToOne",
      "target": "api::page.page",
      "mappedBy": "menu"
    },
    "slug": {
      "type": "string"
    },
    "path": {
      "type": "string"
    }
  }
}
