{
  "kind": "collectionType",
  "collectionName": "dashboards",
  "info": {
    "singularName": "dashboard",
    "pluralName": "dashboards",
    "displayName": "Dashboard",
    "description": ""
  },
  "options": {
    "draftAndPublish": true
  },
  "pluginOptions": {},
  "attributes": {
    "name": {
      "type": "string"
    },
    "component": {
      "type": "enumeration",
      "enum": [
        "Dashboard",
        "AcmeDashboard",
        "RoadRunnerDashboard"
      ],
      "default": "Dashboard"
    },
    "tenants": {
      "type": "relation",
      "relation": "manyToMany",
      "target": "api::tenant.tenant",
      "inversedBy": "dashboards"
    }
  }
}
